,Codicen,Caso,FechaCarga,Estado,Motivo,Tipo,FechaI,FechaF
2,1115099,10408500,20190801,Cerrado,Soporte P2,Soporte Videoconferencia,20190801,20191007
4,1108028,10433381,20190809,Cerrado,Soporte P1,Soporte Videoconferencia,20190809,20191018
7,1118086,10443369,20190815,Cerrado,Soporte P2,Soporte Videoconferencia,20190815,20191010
8,1115009,10451928,20190819,Cerrado,Soporte P2,Soporte Videoconferencia,20190819,20191022
9,1208810,10456676,20190821,Cerrado,Soporte P1,Soporte Videoconferencia,20190821,20191015
13,1119048,10501702,20190910,Cerrado,No se pueden realizar llamadas,Soporte Videoconferencia,20190910,20191003
18,1104107,10503807,20190911,Cerrado,Soporte P1,Soporte Videoconferencia,20190911,20191022
19,12161614,10506116,20190912,Cerrado,Soporte P1,Soporte Videoconferencia,20190912,20191003
21,1207713,10507879,20190913,Cerrado,Soporte P2,Soporte Videoconferencia,20190913,20191007
22,1111057,10516423,20190923,Cerrado,Soporte P1,Soporte Videoconferencia,20190923,20191017
23,1103219,10519383,20190924,Cerrado,Soporte P1,Soporte Videoconferencia,20190924,20191001
25,1109002,10523370,20190926,Cerrado,Soporte P2,Soporte Videoconferencia,20190926,20191004
34,1101035,10529590,20191001,Cerrado,Soporte P2,Soporte Videoconferencia,20190930,20191002
36,13017651,10529803,20191001,Cerrado,Soporte P2,Soporte Videoconferencia,20190930,20191016
40,131010643,10530355,20191001,Cerrado,No se pueden realizar llamadas,Soporte Videoconferencia,20191001,20191001
44,1113079,10530657,20191001,Cerrado,Soporte P1,Soporte Videoconferencia,20191001,20191009
45,1113037,10530690,20191001,Cerrado,Soporte P1,Soporte Videoconferencia,20191001,20191009
47,1101263,10530871,20191001,Cerrado,Soporte P2,Soporte Videoconferencia,20191001,20191003
48,1103054,10530903,20191001,Cerrado,Soporte P2,Soporte Videoconferencia,20191001,20191015
49,1115127,10530912,20191001,Cerrado,VC en curso,Soporte Videoconferencia,20191001,20191001
50,1413203,10530915,20191001,Cerrado,VC en curso,Soporte Videoconferencia,20191001,20191001
51,1115088,10530997,20191001,Cerrado,Soporte P1,Soporte Videoconferencia,20191001,20191220
53,1412194,10531175,20191001,Cerrado,VC en curso,Soporte Videoconferencia,20191001,20191001
54,1116009,10531323,20191001,Cerrado,No se pueden realizar llamadas,Soporte Videoconferencia,20191001,20191002
58,1106091,10531706,20191002,Cerrado,Soporte P2,Soporte Videoconferencia,20191002,20191010
62,1104144,10531859,20191002,Cerrado,VC en curso,Soporte Videoconferencia,20191002,20191002
68,1101038,10532270,20191002,Cerrado,Soporte P2,Soporte Videoconferencia,20191002,20191009
69,1202259,10532489,20191002,Cerrado,No se pueden realizar llamadas,Soporte Videoconferencia,20191002,20191002
70,1116000,10532586,20191002,Cerrado,VC en curso,Soporte Videoconferencia,20191002,20191004
71,1103219,10532621,20191002,Cerrado,No se pueden realizar llamadas,Soporte Videoconferencia,20191002,20191002
79,1103034,10532896,20191002,Cerrado,Soporte P1,Soporte Videoconferencia,20191002,20191011
81,14106827,10532956,20191002,Cerrado,VC en curso,Soporte Videoconferencia,20191002,20191002
82,1402196,10533050,20191002,Cerrado,VC en curso,Soporte Videoconferencia,20191002,20191002
84,12111108,10533089,20191002,Cerrado,VC en curso,Soporte Videoconferencia,20191002,20191003
86,1114052,10533516,20191003,Cerrado,VC en curso,Soporte Videoconferencia,20191003,20191003
88,1105039,10533596,20191003,Cerrado,VC en curso,Soporte Videoconferencia,20191003,20191003
89,1114052,10533598,20191003,Cerrado,VC en curso,Soporte Videoconferencia,20191003,20191011
90,1201004,10533640,20191003,Cerrado,No se pueden realizar llamadas,Soporte Videoconferencia,20191003,20191003
91,1206001,10533802,20191003,Cerrado,VC en curso,Soporte Videoconferencia,20191003,20191003
92,1101014,10534138,20191003,Cerrado,VC en curso,Soporte Videoconferencia,20191003,20191003
93,1101230,10534142,20191003,Cerrado,Soporte P1,Soporte Videoconferencia,20191003,20191024
96,1101198,10534467,20191003,Cerrado,No se pueden realizar llamadas,Soporte Videoconferencia,20191003,20191003
97,1409206,10534549,20191003,Cerrado,VC en curso,Soporte Videoconferencia,20191003,20191003
98,1418220,10534564,20191003,Cerrado,VC en curso,Soporte Videoconferencia,20191003,20191003
99,1103179,10534718,20191003,Cerrado,VC en curso,Soporte Videoconferencia,20191003,20191003
100,13011301,10534729,20191003,Cerrado,No se pueden realizar llamadas,Soporte Videoconferencia,20191003,20191003
101,1105001,10534733,20191003,Cerrado,Soporte P1,Soporte Videoconferencia,20191003,20191008
103,1111033,10534929,20191003,Cerrado,VC en curso,Soporte Videoconferencia,20191003,20191003
104,1202209,10534979,20191003,Cerrado,No se pueden realizar llamadas,Soporte Videoconferencia,20191003,20191029
105,1108003,10534989,20191003,Cerrado,VC en curso,Soporte Videoconferencia,20191003,20191003
110,1102081,10535730,20191004,Cerrado,No se pueden realizar llamadas,Soporte Videoconferencia,20191004,20191004
111,3500549,10535750,20191004,Cerrado,No se pueden realizar llamadas,Soporte Videoconferencia,20191004,20191004
113,1108076,10536216,20191004,Cerrado,Soporte P2,Soporte Videoconferencia,20191004,20191028
117,1117010,10536490,20191004,Cerrado,Soporte P2,Soporte Videoconferencia,20191004,20191009
124,1104013,10537269,20191004,Cerrado,VC en curso,Soporte Videoconferencia,20191004,20191004
125,1103145,10537277,20191004,Cerrado,VC en curso,Soporte Videoconferencia,20191004,20191004
127,1104097,10537583,20191004,Cerrado,Soporte P1,Soporte Videoconferencia,20191004,20191030
128,1208001,10537599,20191004,Cerrado,VC en curso,Soporte Videoconferencia,20191004,20191004
130,1414219,10537998,20191007,Cerrado,VC en curso,Soporte Videoconferencia,20191007,20191007
131,1106064,10538026,20191007,Cerrado,VC en curso,Soporte Videoconferencia,20191007,20191007
132,1402196,10538052,20191007,Cerrado,VC en curso,Soporte Videoconferencia,20191007,20191007
134,1217001,10538135,20191007,Cerrado,VC en curso,Soporte Videoconferencia,20191007,20191007
135,1111112,10538159,20191007,Cerrado,No se pueden realizar llamadas,Soporte Videoconferencia,20191007,20191007
136,1414219,10538162,20191007,Cerrado,VC en curso,Soporte Videoconferencia,20191007,20191007
138,1103191,10538292,20191007,Cerrado,VC en curso,Soporte Videoconferencia,20191007,20191007
142,12181803,10538736,20191007,Cerrado,VC en curso,Soporte Videoconferencia,20191007,20191007
144,1110012,10538789,20191007,Cerrado,VC en curso,Soporte Videoconferencia,20191007,20191007
146,1116121,10539030,20191007,Cerrado,No se pueden realizar llamadas,Soporte Videoconferencia,20191007,20191008
149,1110052,10539311,20191007,Cerrado,Soporte P1,Soporte Videoconferencia,20191007,20191014
151,1117001,10539439,20191007,Cerrado,Soporte P2,Soporte Videoconferencia,20191007,20191008
157,1101040,10540255,20191008,Cerrado,No se pueden realizar llamadas,Soporte Videoconferencia,20191008,20191008
159,1105117,10540390,20191008,Cerrado,VC en curso,Soporte Videoconferencia,20191008,20191008
160,1105098,10540435,20191008,Cerrado,Soporte P1,Soporte Videoconferencia,20191008,20191016
161,1105117,10540464,20191008,Cerrado,VC en curso,Soporte Videoconferencia,20191008,20191008
165,1103154,10540910,20191008,Cerrado,VC en curso,Soporte Videoconferencia,20191008,20191008
166,1104034,10540924,20191008,Cerrado,Soporte P1,Soporte Videoconferencia,20191008,20191010
170,1208806,10541166,20191008,Cerrado,VC en curso,Soporte Videoconferencia,20191008,20191008
171,1101251,10541216,20191008,Cerrado,VC en curso,Soporte Videoconferencia,20191008,20191008
172,1101029,10541285,20191008,Cerrado,Soporte P1,Soporte Videoconferencia,20191008,20191009
177,1402196,10541778,20191008,Cerrado,VC en curso,Soporte Videoconferencia,20191008,20191008
179,3500551,10542101,20191009,Cerrado,Soporte P1,Soporte Videoconferencia,20191009,20191009
180,1101152,10542124,20191009,Cerrado,VC en curso,Soporte Videoconferencia,20191009,20191009
181,1418220,10542191,20191009,Cerrado,Soporte P2,Soporte Videoconferencia,20191009,20191010
188,1102064,10542569,20191009,Cerrado,VC en curso,Soporte Videoconferencia,20191009,20191009
189,14197639,10542604,20191009,Cerrado,VC en curso,Soporte Videoconferencia,20191009,20191009
190,14106827,10542638,20191009,Cerrado,VC en curso,Soporte Videoconferencia,20191009,20191009
192,1114100,10542835,20191009,Cerrado,No se pueden realizar llamadas,Soporte Videoconferencia,20191009,20191009
193,1402196,10542840,20191009,Cerrado,VC en curso,Soporte Videoconferencia,20191009,20191009
203,1103141,10544040,20191009,Cerrado,Soporte P1,Soporte Videoconferencia,20191009,20191106
204,1410674,10544152,20191009,Cerrado,VC en curso,Soporte Videoconferencia,20191009,20191009
205,14106827,10544610,20191010,Cerrado,VC en curso,Soporte Videoconferencia,20191010,20191010
206,1414219,10544650,20191010,Cerrado,VC en curso,Soporte Videoconferencia,20191010,20191010
207,14197639,10544675,20191010,Cerrado,VC en curso,Soporte Videoconferencia,20191010,20191010
208,1101101,10544729,20191010,Cerrado,No se pueden realizar llamadas,Soporte Videoconferencia,20191010,20191014
215,1203305,10545621,20191010,Cerrado,VC en curso,Soporte Videoconferencia,20191010,20191010
216,1201102,10545778,20191010,Cerrado,No se pueden realizar llamadas,Soporte Videoconferencia,20191010,20191011
217,1409217,10545779,20191010,Cerrado,VC en curso,Soporte Videoconferencia,20191010,20191106
219,1110006,10545891,20191010,Cerrado,VC en curso,Soporte Videoconferencia,20191010,20191010
220,1115107,10545964,20191010,Cerrado,No se pueden realizar llamadas,Soporte Videoconferencia,20191010,20191010
221,1414219,10546173,20191010,Cerrado,VC en curso,Soporte Videoconferencia,20191010,20191010
222,1101029,10546504,20191010,Cerrado,Soporte P2,Soporte Videoconferencia,20191010,20191014
224,14106827,10546650,20191011,Cerrado,VC en curso,Soporte Videoconferencia,20191011,20191014
225,1104002,10546651,20191011,Cerrado,VC en curso,Soporte Videoconferencia,20191011,20191011
226,1106085,10546653,20191011,Cerrado,No se pueden realizar llamadas,Soporte Videoconferencia,20191011,20191011
229,14106827,10546716,20191011,Cerrado,VC en curso,Soporte Videoconferencia,20191011,20191011
230,14197638,10546735,20191011,Cerrado,VC en curso,Soporte Videoconferencia,20191011,20191011
231,1101334,10546787,20191011,Cerrado,No se pueden realizar llamadas,Soporte Videoconferencia,20191011,20191011
233,1218001,10546976,20191011,Cerrado,VC en curso,Soporte Videoconferencia,20191011,20191011
235,12141402,10546991,20191011,Cerrado,VC en curso,Soporte Videoconferencia,20191011,20191011
238,1108007,10547205,20191011,Cerrado,Soporte P1,Soporte Videoconferencia,20191011,20191017
239,1203018,10547369,20191011,Cerrado,No se pueden realizar llamadas,Soporte Videoconferencia,20191011,20191011
242,1101066,10547488,20191011,Cerrado,No se pueden realizar llamadas,Soporte Videoconferencia,20191011,20191014
243,1212001,10547546,20191011,Cerrado,VC en curso,Soporte Videoconferencia,20191011,20191011
244,1117041,10547578,20191011,Cerrado,VC en curso,Soporte Videoconferencia,20191011,20191011
249,1414219,10547963,20191011,Cerrado,VC en curso,Soporte Videoconferencia,20191011,20191011
250,12101031,10548082,20191011,Cerrado,Soporte P1,Soporte Videoconferencia,20191011,20191016
251,1101303,10548573,20191014,Cerrado,VC en curso,Soporte Videoconferencia,20191014,20191014
252,1119083,10548575,20191014,Cerrado,VC en curso,Soporte Videoconferencia,20191014,20191014
253,1405216,10548585,20191014,Cerrado,VC en curso,Soporte Videoconferencia,20191014,20191014
254,1103145,10548842,20191014,Cerrado,VC en curso,Soporte Videoconferencia,20191014,20191014
258,1202252,10549072,20191014,Cerrado,VC en curso,Soporte Videoconferencia,20191014,20191014
260,1109002,10549193,20191014,Cerrado,Soporte P2,Soporte Videoconferencia,20191014,20191018
262,1218001,10549500,20191014,Cerrado,Soporte P1,Soporte Videoconferencia,20191014,20191128
264,4006757,10549656,20191014,Cerrado,Soporte P1,Soporte Videoconferencia,20191014,20191014
265,1109008,10549836,20191014,Cerrado,VC en curso,Soporte Videoconferencia,20191014,20191014
270,1103140,10550536,20191014,Cerrado,VC en curso,Soporte Videoconferencia,20191014,20191014
273,1113096,10550721,20191015,Cerrado,Soporte P1,Soporte Videoconferencia,20191015,20191016
274,1103154,10550728,20191015,Cerrado,VC en curso,Soporte Videoconferencia,20191015,20191015
276,1108052,10550891,20191015,Cerrado,VC en curso,Soporte Videoconferencia,20191015,20191015
282,2008485,10551704,20191015,Cerrado,Soporte P2,Soporte Videoconferencia,20191015,20191021
283,1208806,10551786,20191015,Cerrado,VC en curso,Soporte Videoconferencia,20191015,20191015
284,1103170,10551877,20191015,Cerrado,No se pueden realizar llamadas,Soporte Videoconferencia,20191015,20191015
286,1115127,10551969,20191015,Cerrado,VC en curso,Soporte Videoconferencia,20191015,20191015
287,1119047,10551990,20191015,Cerrado,VC en curso,Soporte Videoconferencia,20191015,20191015
295,1001676,10556183,20191016,Cerrado,VC en curso,Soporte Videoconferencia,20191016,20191016
296,1105138,10556381,20191016,Cerrado,Soporte P1,Soporte Videoconferencia,20191016,20191025
297,1110052,10556402,20191016,Cerrado,VC en curso,Soporte Videoconferencia,20191016,20191016
298,1103191,10556437,20191016,Cerrado,Soporte P1,Soporte Videoconferencia,20191016,20191021
300,1105092,10556834,20191016,Cerrado,VC en curso,Soporte Videoconferencia,20191016,20191016
302,1405000,10557177,20191016,Cerrado,VC en curso,Soporte Videoconferencia,20191016,20191016
305,1103133,10557714,20191016,Cerrado,No se pueden realizar llamadas,Soporte Videoconferencia,20191016,20191016
308,12181807,10558294,20191016,Cerrado,Soporte P1,Soporte Videoconferencia,20191016,20191028
309,1112005,10558367,20191016,Cerrado,Soporte P1,Soporte Videoconferencia,20191016,20191104
311,1104008,10558605,20191016,Cerrado,Soporte P1,Soporte Videoconferencia,20191016,20191024
312,1109088,10558761,20191016,Cerrado,Soporte P1,Soporte Videoconferencia,20191016,20191106
315,1114086,10559237,20191016,Cerrado,VC en curso,Soporte Videoconferencia,20191016,20191016
316,1202207,10559280,20191016,Cerrado,Soporte P1,Soporte Videoconferencia,20191016,20191024
320,1103058,10559653,20191016,Cerrado,VC en curso,Soporte Videoconferencia,20191016,20191016
321,1310021,10559679,20191016,Cerrado,VC en curso,Soporte Videoconferencia,20191016,20191016
326,1102009,10560203,20191017,Cerrado,VC en curso,Soporte Videoconferencia,20191017,20191017
328,1407198,10560581,20191017,Cerrado,No se pueden realizar llamadas,Soporte Videoconferencia,20191017,20191017
331,1116049,10561018,20191017,Cerrado,No se pueden realizar llamadas,Soporte Videoconferencia,20191017,20191018
334,14106827,10561113,20191017,Cerrado,VC en curso,Soporte Videoconferencia,20191017,20191017
337,1405216,10561301,20191017,Cerrado,VC en curso,Soporte Videoconferencia,20191017,20191017
338,1405216,10561676,20191017,Cerrado,VC en curso,Soporte Videoconferencia,20191017,20191017
339,14106827,10561726,20191017,Cerrado,VC en curso,Soporte Videoconferencia,20191017,20191017
343,1111042,10562139,20191018,Cerrado,VC en curso,Soporte Videoconferencia,20191018,20191018
350,1110098,10562591,20191018,Cerrado,VC en curso,Soporte Videoconferencia,20191018,20191018
352,12141402,10562617,20191018,Cerrado,Soporte P2,Soporte Videoconferencia,20191018,20191023
355,12181808,10563199,20191018,Cerrado,No se pueden realizar llamadas,Soporte Videoconferencia,20191018,20191018
356,1117010,10563283,20191018,Cerrado,Soporte P1,Soporte Videoconferencia,20191018,20191018
357,1102036,10563323,20191018,Cerrado,No se pueden realizar llamadas,Soporte Videoconferencia,20191018,20191018
362,1208001,10563943,20191018,Cerrado,VC en curso,Soporte Videoconferencia,20191018,20191018
363,1109001,10564522,20191021,Cerrado,No se pueden realizar llamadas,Soporte Videoconferencia,20191021,20191021
366,2000190,10564578,20191021,Cerrado,VC en curso,Soporte Videoconferencia,20191021,20191021
367,14106827,10564581,20191021,Cerrado,VC en curso,Soporte Videoconferencia,20191021,20191021
377,3500663,10564777,20191021,Cerrado,VC en curso,Soporte Videoconferencia,20191021,20191021
380,1117001,10565687,20191021,Cerrado,VC en curso,Soporte Videoconferencia,20191021,20191021
385,1103264,10566399,20191022,Cerrado,Soporte P1,Soporte Videoconferencia,20191022,20191024
390,1111042,10566695,20191022,Cerrado,VC en curso,Soporte Videoconferencia,20191022,20191022
391,1105006,10566709,20191022,Cerrado,Soporte P1,Soporte Videoconferencia,20191022,20191112
394,1114056,10567014,20191022,Cerrado,VC en curso,Soporte Videoconferencia,20191022,20191022
397,1110003,10567621,20191022,Cerrado,VC en curso,Soporte Videoconferencia,20191022,20191022
400,1114007,10568117,20191022,Cerrado,VC en curso,Soporte Videoconferencia,20191022,20191022
401,1402196,10568204,20191022,Cerrado,VC en curso,Soporte Videoconferencia,20191022,20191022
403,1115088,10568508,20191023,Cerrado,VC en curso,Soporte Videoconferencia,20191023,20191023
404,1101169,10568512,20191023,Cerrado,VC en curso,Soporte Videoconferencia,20191023,20191023
406,1101197,10568716,20191023,Cerrado,VC en curso,Soporte Videoconferencia,20191023,20191023
407,1103076,10568737,20191023,Cerrado,Soporte P2,Soporte Videoconferencia,20191023,20191029
409,1206001,10568890,20191023,Cerrado,VC en curso,Soporte Videoconferencia,20191023,20191023
410,1101097,10568900,20191023,Cerrado,No se pueden realizar llamadas,Soporte Videoconferencia,20191023,20191023
412,12121205,10569056,20191023,Cerrado,No se pueden realizar llamadas,Soporte Videoconferencia,20191023,20191023
413,1114052,10569140,20191023,Cerrado,Soporte P1,Soporte Videoconferencia,20191023,20191104
414,1101353,10569304,20191023,Cerrado,VC en curso,Soporte Videoconferencia,20191023,20191024
415,1103175,10569313,20191023,Cerrado,Soporte P1,Soporte Videoconferencia,20191023,20191024
417,1204401,10569566,20191023,Cerrado,VC en curso,Soporte Videoconferencia,20191023,20191023
419,1402196,10569686,20191023,Cerrado,VC en curso,Soporte Videoconferencia,20191023,20191023
422,12101069,10569806,20191023,Cerrado,VC en curso,Soporte Videoconferencia,20191023,20191023
423,3500551,10569838,20191023,Cerrado,Soporte P1,Soporte Videoconferencia,20191023,20191024
424,1114032,10569855,20191023,Cerrado,VC en curso,Soporte Videoconferencia,20191023,20191023
427,1416209,10570346,20191023,Cerrado,VC en curso,Soporte Videoconferencia,20191023,20191023
430,13011301,10570594,20191024,Cerrado,Soporte P1,Soporte Videoconferencia,20191024,20191029
432,1113009,10570605,20191024,Cerrado,Soporte P2,Soporte Videoconferencia,20191024,20191203
433,4006639,10570616,20191024,Cerrado,VC en curso,Soporte Videoconferencia,20191024,20191024
435,3500663,10571145,20191024,Cerrado,VC en curso,Soporte Videoconferencia,20191024,20191024
436,1304111,10571176,20191024,Cerrado,VC en curso,Soporte Videoconferencia,20191024,20191024
437,1111013,10571275,20191024,Cerrado,No se pueden realizar llamadas,Soporte Videoconferencia,20191024,20191114
438,12171702,10571346,20191024,Cerrado,VC en curso,Soporte Videoconferencia,20191024,20191024
441,12171702,10571382,20191024,Cerrado,VC en curso,Soporte Videoconferencia,20191024,20191024
442,1103227,10571483,20191024,Cerrado,No se pueden realizar llamadas,Soporte Videoconferencia,20191024,20191024
444,2000194,10571650,20191024,Cerrado,VC en curso,Soporte Videoconferencia,20191024,20191024
446,13018901,10571791,20191024,Cerrado,VC en curso,Soporte Videoconferencia,20191024,20191024
449,1103244,10571959,20191024,Cerrado,VC en curso,Soporte Videoconferencia,20191024,20191024
450,1103175,10572111,20191024,Cerrado,Soporte P1,Soporte Videoconferencia,20191024,20191029
452,1201015,10572208,20191024,Cerrado,No se pueden realizar llamadas,Soporte Videoconferencia,20191024,20191024
453,12171706,10572444,20191024,Cerrado,No se pueden realizar llamadas,Soporte Videoconferencia,20191024,20191024
454,3500663,10572528,20191024,Cerrado,VC en curso,Soporte Videoconferencia,20191024,20191024
455,1110095,10572561,20191024,Cerrado,No se pueden realizar llamadas,Soporte Videoconferencia,20191024,20191024
456,1113144,10572686,20191024,Cerrado,Soporte P1,Soporte Videoconferencia,20191024,20191104
458,1415201,10572995,20191025,Cerrado,Soporte P2,Soporte Videoconferencia,20191025,20191114
459,1412014,10573015,20191025,Cerrado,VC en curso,Soporte Videoconferencia,20191025,20191115
460,1101204,10573036,20191025,Cerrado,VC en curso,Soporte Videoconferencia,20191025,20191125
461,12161608,10573039,20191025,Cerrado,VC en curso,Soporte Videoconferencia,20191025,20191025
462,1101014,10573043,20191025,Cerrado,Soporte P1,Soporte Videoconferencia,20191025,20191029
464,1101204,10573066,20191025,Cerrado,VC en curso,Soporte Videoconferencia,20191025,20191025
465,1103292,10573141,20191025,Cerrado,VC en curso,Soporte Videoconferencia,20191025,20191025
466,1103292,10573201,20191025,Cerrado,No se pueden realizar llamadas,Soporte Videoconferencia,20191025,20191025
467,1114032,10573397,20191025,Cerrado,Soporte P1,Soporte Videoconferencia,20191025,20191104
470,1101056,10573737,20191025,Cerrado,No se pueden realizar llamadas,Soporte Videoconferencia,20191025,20191025
472,1103189,10573879,20191025,Cerrado,No se pueden realizar llamadas,Soporte Videoconferencia,20191025,20191025
473,1405216,10573993,20191025,Cerrado,VC en curso,Soporte Videoconferencia,20191025,20191025
474,3500030,10574102,20191025,Cerrado,VC en curso,Soporte Videoconferencia,20191025,20191025
475,1103166,10574181,20191025,Cerrado,No se pueden realizar llamadas,Soporte Videoconferencia,20191025,20191025
477,3500663,10574256,20191025,Cerrado,VC en curso,Soporte Videoconferencia,20191025,20191025
480,1107002,10574385,20191025,Cerrado,Soporte P2,Soporte Videoconferencia,20191025,20191030
481,1402196,10574428,20191025,Cerrado,VC en curso,Soporte Videoconferencia,20191025,20191025
484,1202204,10574550,20191025,Cerrado,VC en curso,Soporte Videoconferencia,20191025,20191025
486,1103286,10574718,20191025,Cerrado,VC en curso,Soporte Videoconferencia,20191025,20191025
487,1103245,10574723,20191025,Cerrado,No se pueden realizar llamadas,Soporte Videoconferencia,20191025,20191028
489,14106827,10574792,20191025,Cerrado,VC en curso,Soporte Videoconferencia,20191025,20191028
490,1103165,10575041,20191028,Cerrado,Soporte P1,Soporte Videoconferencia,20191028,20191029
491,1118011,10575047,20191028,Cerrado,VC en curso,Soporte Videoconferencia,20191028,20191028
493,1110064,10575298,20191028,Cerrado,Soporte P1,Soporte Videoconferencia,20191028,20191104
494,1101130,10575723,20191028,Cerrado,Soporte P1,Soporte Videoconferencia,20191028,20191104
496,1118133,10575762,20191028,Cerrado,Soporte P2,Soporte Videoconferencia,20191028,20191031
499,1103236,10576103,20191028,Cerrado,Soporte P1,Soporte Videoconferencia,20191028,20191125
502,1202233,10576256,20191028,Cerrado,No se pueden realizar llamadas,Soporte Videoconferencia,20191028,20191028
503,1105128,10576290,20191028,Cerrado,Soporte P1,Soporte Videoconferencia,20191028,20191104
506,1210001,10576735,20191028,Cerrado,VC en curso,Soporte Videoconferencia,20191028,20191028
508,1118070,10576825,20191029,Cerrado,VC en curso,Soporte Videoconferencia,20191029,20191112
509,1111112,10576827,20191029,Cerrado,Soporte P1,Soporte Videoconferencia,20191029,20191104
512,1114043,10577391,20191029,Cerrado,Soporte P1,Soporte Videoconferencia,20191029,20191108
513,1106012,10577732,20191029,Cerrado,Soporte P2,Soporte Videoconferencia,20191029,20191101
514,1119019,10577737,20191029,Cerrado,No se pueden realizar llamadas,Soporte Videoconferencia,20191029,20191030
516,1101261,10577954,20191029,Cerrado,Soporte P2,Soporte Videoconferencia,20191029,20191031
517,1103153,10578257,20191029,Cerrado,Soporte P1,Soporte Videoconferencia,20191029,20191203
518,1103271,10578429,20191030,Cerrado,VC en curso,Soporte Videoconferencia,20191030,20191030
519,1101152,10578436,20191030,Cerrado,VC en curso,Soporte Videoconferencia,20191030,20191030
522,1101181,10578480,20191030,Cerrado,VC en curso,Soporte Videoconferencia,20191030,20191030
523,1101298,10578515,20191030,Cerrado,VC en curso,Soporte Videoconferencia,20191030,20191030
532,1103178,10579043,20191030,Cerrado,VC en curso,Soporte Videoconferencia,20191030,20191030
534,1302141,10579164,20191030,Cerrado,VC en curso,Soporte Videoconferencia,20191030,20191030
535,1203301,10579177,20191030,Cerrado,VC en curso,Soporte Videoconferencia,20191030,20191030
538,1402196,10579200,20191030,Cerrado,VC en curso,Soporte Videoconferencia,20191030,20191030
539,14106827,10579256,20191030,Cerrado,VC en curso,Soporte Videoconferencia,20191030,20191030
540,1114028,10579334,20191030,Cerrado,VC en curso,Soporte Videoconferencia,20191030,20191030
541,1101027,10579350,20191030,Cerrado,No se pueden realizar llamadas,Soporte Videoconferencia,20191030,20191030
544,1208802,10579463,20191030,Cerrado,Soporte P2,Soporte Videoconferencia,20191030,20191106
545,1119048,10579517,20191030,Cerrado,VC en curso,Soporte Videoconferencia,20191030,20191030
546,1101265,10579618,20191030,Cerrado,Soporte P1,Soporte Videoconferencia,20191030,20191101
547,1117046,10579745,20191030,Cerrado,Soporte P1,Soporte Videoconferencia,20191030,20191114
548,1202001,10579767,20191030,Cerrado,VC en curso,Soporte Videoconferencia,20191030,20191030
549,1110107,10579768,20191030,Cerrado,Soporte P2,Soporte Videoconferencia,20191030,20191031
551,14197639,10579829,20191030,Cerrado,VC en curso,Soporte Videoconferencia,20191030,20191030
558,1113003,10580189,20191031,Cerrado,VC en curso,Soporte Videoconferencia,20191031,20191031
560,1115119,10580208,20191031,Cerrado,No se pueden realizar llamadas,Soporte Videoconferencia,20191031,20191101
564,1102003,10580343,20191031,Cerrado,Soporte P1,Soporte Videoconferencia,20191031,20191111
565,1101170,10580524,20191031,Cerrado,VC en curso,Soporte Videoconferencia,20191031,20191031
571,1111097,10580897,20191031,Cerrado,Soporte P2,Soporte Videoconferencia,20191031,20191113
572,1105130,10580912,20191031,Cerrado,Soporte P1,Soporte Videoconferencia,20191031,20191113
573,1310442,10580988,20191031,Cerrado,VC en curso,Soporte Videoconferencia,20191031,20191108
575,1119048,10581009,20191031,Cerrado,Soporte P1,Soporte Videoconferencia,20191031,20191107
576,1408676,10581162,20191031,Cerrado,No se pueden realizar llamadas,Soporte Videoconferencia,20191031,20191031
577,1413203,10581175,20191031,Cerrado,VC en curso,Soporte Videoconferencia,20191031,20191031
578,1118000,10581217,20191031,Cerrado,VC en curso,Soporte Videoconferencia,20191031,20191031
579,1118149,10581223,20191031,Cerrado,Soporte P1,Soporte Videoconferencia,20191031,20191202
580,1108037,10581356,20191031,Cerrado,VC en curso,Soporte Videoconferencia,20191031,20191115
582,1101126,10581447,20191031,Cerrado,Soporte P2,Soporte Videoconferencia,20191031,20191107
583,1201015,10581538,20191031,Cerrado,VC en curso,Soporte Videoconferencia,20191031,20191031
585,1415201,10581620,20191031,Cerrado,VC en curso,Soporte Videoconferencia,20191031,20191031
586,1415201,10581678,20191031,Cerrado,VC en curso,Soporte Videoconferencia,20191031,20191031
587,1201109,10581740,20191031,Cerrado,VC en curso,Soporte Videoconferencia,20191031,20191031
