,Codicen,Caso,FechaCarga,Estado,Motivo,Tipo,FechaI,FechaF
0,1102043,9191305,20160912,Cerrado,VC en curso,Soporte Videoconferencia,20181004,20190320
14,1201102,9283591,20190313,Cerrado,VC en curso,Soporte Videoconferencia,20181122,20190308
20,2000189,9313829,20181212,Cerrado,VC en curso,Soporte Videoconferencia,20181212,20190322
21,1103269,9316156,20181214,Cerrado,No se pueden realizar llamadas,Soporte Videoconferencia,20181214,20190329
24,13011301,9468971,20190313,Cerrado,No se pueden realizar llamadas,Soporte Videoconferencia,20190205,20190307
28,1413204,9534157,20190215,Cerrado,No se pueden realizar llamadas,Soporte Videoconferencia,20190215,20190327
30,1101105,9540477,20190222,Cerrado,No se pueden realizar llamadas,Soporte Videoconferencia,20190222,20190322
31,1202239,9540868,20190313,Cerrado,No se pueden realizar llamadas,Soporte Videoconferencia,20190222,20190308
37,1201106,9542955,20190313,Cerrado,No se pueden realizar llamadas,Soporte Videoconferencia,20190226,20190311
39,1101136,9544413,20190313,Cerrado,VC en curso,Soporte Videoconferencia,20190227,20190311
43,12101014,9549564,20190312,Cerrado,No se pueden realizar llamadas,Soporte Videoconferencia,20190228,20190312
46,13016851,9550578,20190313,Cerrado,No se pueden realizar llamadas,Soporte Videoconferencia,20190301,20190322
47,1108008,9550606,20190313,Cerrado,No se pueden realizar llamadas,Soporte Videoconferencia,20190301,20190308
51,1108019,9551075,20190312,Cerrado,No se pueden realizar llamadas,Soporte Videoconferencia,20190301,20190412
55,1107031,9552924,20190313,Cerrado,No se pueden realizar llamadas,Soporte Videoconferencia,20190306,20190325
56,1111089,9553137,20190313,Cerrado,No se pueden realizar llamadas,Soporte Videoconferencia,20190306,20190315
57,1104132,9553192,20190313,Cerrado,No se pueden realizar llamadas,Soporte Videoconferencia,20190306,20190307
62,1103292,9554327,20190313,Cerrado,No se pueden realizar llamadas,Soporte Videoconferencia,20190306,20190312
65,13017551,9554412,20190306,Cerrado,VC en curso,Soporte Videoconferencia,20190306,20190306
68,1103197,9608812,20190313,Cerrado,No se pueden realizar llamadas,Soporte Videoconferencia,20190307,20190325
72,14017305,9624640,20190307,Cerrado,VC en curso,Soporte Videoconferencia,20190307,20190307
74,1109010,9629017,20190312,Cerrado,No se pueden realizar llamadas,Soporte Videoconferencia,20190307,20190312
75,1102043,9629055,20190307,Cerrado,VC en curso,Soporte Videoconferencia,20190307,20190307
78,1104119,9629416,20190312,Cerrado,No se pueden realizar llamadas,Soporte Videoconferencia,20190307,20190312
87,1111057,9679306,20190313,Cerrado,No se pueden realizar llamadas,Soporte Videoconferencia,20190308,20190312
94,1110050,9679629,20190313,Cerrado,No se pueden realizar llamadas,Soporte Videoconferencia,20190308,20190312
97,1101068,9679800,20190313,Cerrado,No se pueden realizar llamadas,Soporte Videoconferencia,20190308,20190520
98,1116000,9686121,20190311,Cerrado,VC en curso,Soporte Videoconferencia,20190311,20190311
99,13013821,9686135,20190313,Cerrado,No se pueden realizar llamadas,Soporte Videoconferencia,20190311,20190313
105,1101236,9686837,20190313,Cerrado,No se pueden realizar llamadas,Soporte Videoconferencia,20190311,20190312
110,1204402,9687630,20190313,Cerrado,No se pueden realizar llamadas,Soporte Videoconferencia,20190311,20190326
115,1304111,9689681,20190312,Cerrado,No se pueden realizar llamadas,Soporte Videoconferencia,20190312,20190412
117,4006975,9690071,20190312,Cerrado,No se pueden realizar llamadas,Soporte Videoconferencia,20190312,20190312
119,1101366,9690086,20190312,Cerrado,No se pueden realizar llamadas,Soporte Videoconferencia,20190312,20190314
124,1107047,9691700,20190312,Cerrado,No se pueden realizar llamadas,Soporte Videoconferencia,20190312,20190325
131,1112017,9693762,20190313,Cerrado,No se pueden realizar llamadas,Soporte Videoconferencia,20190313,20190313
135,1117110,9694178,20190313,Cerrado,No se pueden realizar llamadas,Soporte Videoconferencia,20190313,20190314
137,1107001,9694215,20190313,Cerrado,No se pueden realizar llamadas,Soporte Videoconferencia,20190313,20190320
138,1115048,9694314,20190313,Cerrado,No se pueden realizar llamadas,Soporte Videoconferencia,20190313,20190313
139,1102037,9694403,20190313,Cerrado,No se pueden realizar llamadas,Soporte Videoconferencia,20190313,20190315
141,13016544,9694689,20190313,Cerrado,VC en curso,Soporte Videoconferencia,20190313,20190313
145,1111054,9694905,20190313,Cerrado,No se pueden realizar llamadas,Soporte Videoconferencia,20190313,20190429
146,1114088,9694966,20190313,Cerrado,VC en curso,Soporte Videoconferencia,20190313,20190313
148,1101378,9695259,20190313,Cerrado,No se pueden realizar llamadas,Soporte Videoconferencia,20190313,20190314
149,1116045,9695378,20190313,Cerrado,No se pueden realizar llamadas,Soporte Videoconferencia,20190313,20190319
152,1207713,9695604,20190313,Cerrado,No se pueden realizar llamadas,Soporte Videoconferencia,20190313,20190322
159,12181812,9696956,20190314,Cerrado,VC en curso,Soporte Videoconferencia,20190314,20190314
160,14106827,9697006,20190314,Cerrado,VC en curso,Soporte Videoconferencia,20190314,20190314
161,1417483,9697094,20190314,Cerrado,No se pueden realizar llamadas,Soporte Videoconferencia,20190314,20190315
169,1101226,9699087,20190314,Cerrado,No se pueden realizar llamadas,Soporte Videoconferencia,20190314,20190315
171,1115098,9699433,20190314,Cerrado,No se pueden realizar llamadas,Soporte Videoconferencia,20190314,20190321
175,1110052,9709732,20190315,Cerrado,No se pueden realizar llamadas,Soporte Videoconferencia,20190315,20190318
181,13126314,9710657,20190315,Cerrado,No se pueden realizar llamadas,Soporte Videoconferencia,20190315,20190320
182,12151503,9711218,20190318,Cerrado,No se pueden realizar llamadas,Soporte Videoconferencia,20190318,20190326
183,13013821,9711250,20190318,Cerrado,No se pueden realizar llamadas,Soporte Videoconferencia,20190318,20190318
185,1112062,9711266,20190318,Cerrado,VC en curso,Soporte Videoconferencia,20190318,20190318
186,1111099,9711304,20190318,Cerrado,VC en curso,Soporte Videoconferencia,20190318,20190410
187,1101303,9711325,20190318,Cerrado,VC en curso,Soporte Videoconferencia,20190318,20190319
189,1116099,9711417,20190318,Cerrado,VC en curso,Soporte Videoconferencia,20190318,20190325
190,1103173,9711440,20190318,Cerrado,VC en curso,Soporte Videoconferencia,20190318,20190423
191,1106064,9711516,20190318,Cerrado,VC en curso,Soporte Videoconferencia,20190318,20190318
192,1101136,9711576,20190318,Cerrado,VC en curso,Soporte Videoconferencia,20190318,20190318
196,1119031,9714368,20190318,Cerrado,VC en curso,Soporte Videoconferencia,20190318,20190502
200,1411015,9725014,20190318,Cerrado,No se pueden realizar llamadas,Soporte Videoconferencia,20190318,20190326
201,1101154,9727099,20190318,Cerrado,No se pueden realizar llamadas,Soporte Videoconferencia,20190318,20190613
204,1310722,9734083,20190318,Cerrado,No se pueden realizar llamadas,Soporte Videoconferencia,20190318,20190424
206,1103111,9734579,20190318,Cerrado,VC en curso,Soporte Videoconferencia,20190318,20190319
207,1103130,9734683,20190318,Cerrado,No se pueden realizar llamadas,Soporte Videoconferencia,20190318,20190318
217,1115009,9737837,20190319,Cerrado,VC en curso,Soporte Videoconferencia,20190319,20190319
225,1101369,9738494,20190319,Cerrado,No se pueden realizar llamadas,Soporte Videoconferencia,20190319,20190328
227,1101334,9738950,20190319,Cerrado,No se pueden realizar llamadas,Soporte Videoconferencia,20190319,20190426
228,1110093,9738998,20190319,Cerrado,No se pueden realizar llamadas,Soporte Videoconferencia,20190319,20190319
235,1103271,9739822,20190319,Cerrado,VC en curso,Soporte Videoconferencia,20190319,20190319
236,1101055,9739826,20190319,Cerrado,No se pueden realizar llamadas,Soporte Videoconferencia,20190319,20190325
241,1102005,9740507,20190319,Cerrado,VC en curso,Soporte Videoconferencia,20190319,20190319
243,1102005,9740815,20190319,Cerrado,No se pueden realizar llamadas,Soporte Videoconferencia,20190319,20190320
244,1103292,9740835,20190319,Cerrado,No se pueden realizar llamadas,Soporte Videoconferencia,20190319,20190319
245,1113109,9742736,20190320,Cerrado,No se pueden realizar llamadas,Soporte Videoconferencia,20190320,20190328
246,-1,9742740,20190320,Cerrado,No se pueden realizar llamadas,Soporte Videoconferencia,20190320,20190320
247,3500554,9742752,20190320,Cerrado,VC en curso,Soporte Videoconferencia,20190320,20190327
248,1114088,9742763,20190320,Cerrado,VC en curso,Soporte Videoconferencia,20190320,20190327
249,1405000,9742766,20190320,Cerrado,VC en curso,Soporte Videoconferencia,20190320,20190320
251,1114032,9742770,20190320,Cerrado,No se pueden realizar llamadas,Soporte Videoconferencia,20190320,20190320
252,1111027,9742785,20190320,Cerrado,VC en curso,Soporte Videoconferencia,20190320,20190320
253,1101342,9742826,20190320,Cerrado,No se pueden realizar llamadas,Soporte Videoconferencia,20190320,20190320
254,1309551,9742881,20190320,Cerrado,VC en curso,Soporte Videoconferencia,20190320,20190320
256,1115117,9743150,20190320,Cerrado,VC en curso,Soporte Videoconferencia,20190320,20190325
257,1112032,9743158,20190320,Cerrado,No se pueden realizar llamadas,Soporte Videoconferencia,20190320,20190320
259,1103124,9743616,20190320,Cerrado,VC en curso,Soporte Videoconferencia,20190320,20190320
260,3500553,9743656,20190320,Cerrado,No se pueden realizar llamadas,Soporte Videoconferencia,20190320,20190320
267,1101040,9744738,20190320,Cerrado,VC en curso,Soporte Videoconferencia,20190320,20190320
268,1102017,9744960,20190320,Cerrado,VC en curso,Soporte Videoconferencia,20190320,20190320
273,1103116,9745718,20190320,Cerrado,No se pueden realizar llamadas,Soporte Videoconferencia,20190320,20190320
274,1209909,9745794,20190320,Cerrado,No se pueden realizar llamadas,Soporte Videoconferencia,20190320,20190327
275,1101176,9747597,20190321,Cerrado,VC en curso,Soporte Videoconferencia,20190321,20190322
279,1101049,9747692,20190321,Cerrado,VC en curso,Soporte Videoconferencia,20190321,20190321
280,1101366,9747707,20190321,Cerrado,VC en curso,Soporte Videoconferencia,20190321,20190321
283,1115092,9747811,20190321,Cerrado,VC en curso,Soporte Videoconferencia,20190321,20190321
284,1101366,9747835,20190321,Cerrado,VC en curso,Soporte Videoconferencia,20190321,20190326
285,1101329,9747961,20190321,Cerrado,VC en curso,Soporte Videoconferencia,20190321,20190329
286,1102017,9747989,20190321,Cerrado,VC en curso,Soporte Videoconferencia,20190321,20190321
287,1401671,9748076,20190321,Cerrado,No se pueden realizar llamadas,Soporte Videoconferencia,20190321,20190321
288,13014811,9748320,20190321,Cerrado,VC en curso,Soporte Videoconferencia,20190321,20190321
289,1202261,9748995,20190321,Cerrado,No se pueden realizar llamadas,Soporte Videoconferencia,20190321,20190321
291,12131302,9749100,20190321,Cerrado,No se pueden realizar llamadas,Soporte Videoconferencia,20190321,20190409
295,1202227,9749567,20190321,Cerrado,No se pueden realizar llamadas,Soporte Videoconferencia,20190321,20190321
297,1115088,9749649,20190321,Cerrado,VC en curso,Soporte Videoconferencia,20190321,20190321
303,1119047,9864950,20190322,Cerrado,VC en curso,Soporte Videoconferencia,20190322,20190322
304,1113003,9864958,20190322,Cerrado,VC en curso,Soporte Videoconferencia,20190322,20190322
305,1109054,9864973,20190322,Cerrado,VC en curso,Soporte Videoconferencia,20190322,20190322
311,1303841,9865260,20190322,Cerrado,No se pueden realizar llamadas,Soporte Videoconferencia,20190322,20190603
313,1102083,9865322,20190322,Cerrado,VC en curso,Soporte Videoconferencia,20190322,20190322
318,14156107,9866309,20190322,Cerrado,VC en curso,Soporte Videoconferencia,20190322,20190322
325,1115002,9867588,20190322,Cerrado,VC en curso,Soporte Videoconferencia,20190322,20190605
330,1109008,9980792,20190325,Cerrado,VC en curso,Soporte Videoconferencia,20190325,20190325
334,1109008,9981008,20190325,Cerrado,VC en curso,Soporte Videoconferencia,20190325,20190325
335,1103034,9981085,20190325,Cerrado,VC en curso,Soporte Videoconferencia,20190325,20190325
336,1403211,9981208,20190325,Cerrado,No se pueden realizar llamadas,Soporte Videoconferencia,20190325,20190328
343,1215001,9981796,20190325,Cerrado,No se pueden realizar llamadas,Soporte Videoconferencia,20190325,20190402
349,1117001,9982642,20190325,Cerrado,VC en curso,Soporte Videoconferencia,20190325,20190325
355,1103059,9989733,20190326,Cerrado,VC en curso,Soporte Videoconferencia,20190326,20190405
356,1111048,9989745,20190326,Cerrado,VC en curso,Soporte Videoconferencia,20190326,20190326
357,1101342,9989964,20190326,Cerrado,VC en curso,Soporte Videoconferencia,20190326,20190326
361,4006737,9990093,20190326,Cerrado,VC en curso,Soporte Videoconferencia,20190326,20190326
362,1101036,9990432,20190326,Cerrado,VC en curso,Soporte Videoconferencia,20190326,20190326
363,1111017,9990534,20190326,Cerrado,VC en curso,Soporte Videoconferencia,20190326,20190326
364,4006757,9990615,20190326,Cerrado,VC en curso,Soporte Videoconferencia,20190326,20190326
366,1109108,9990702,20190326,Cerrado,VC en curso,Soporte Videoconferencia,20190326,20190326
367,1401671,9990822,20190326,Cerrado,No se pueden realizar llamadas,Soporte Videoconferencia,20190326,20190326
372,1118162,9991010,20190326,Cerrado,VC en curso,Soporte Videoconferencia,20190326,20190327
375,1101063,9991464,20190326,Cerrado,No se pueden realizar llamadas,Soporte Videoconferencia,20190326,20190326
376,1115095,9991501,20190326,Cerrado,No se pueden realizar llamadas,Soporte Videoconferencia,20190326,20190326
377,1114086,9991531,20190326,Cerrado,No se pueden realizar llamadas,Soporte Videoconferencia,20190326,20190326
381,1101055,9991893,20190326,Cerrado,No se pueden realizar llamadas,Soporte Videoconferencia,20190326,20190326
388,1101270,9993225,20190327,Cerrado,VC en curso,Soporte Videoconferencia,20190327,20190327
389,1116068,9993231,20190327,Cerrado,VC en curso,Soporte Videoconferencia,20190327,20190327
391,1103217,9993249,20190327,Cerrado,VC en curso,Soporte Videoconferencia,20190327,20190327
392,1116105,9993298,20190327,Cerrado,VC en curso,Soporte Videoconferencia,20190327,20190327
393,4006736,9993353,20190327,Cerrado,VC en curso,Soporte Videoconferencia,20190327,20190327
394,1101179,9993457,20190327,Cerrado,VC en curso,Soporte Videoconferencia,20190327,20190327
395,1109111,9993472,20190327,Cerrado,No se pueden realizar llamadas,Soporte Videoconferencia,20190327,20190328
396,1102001,9993491,20190327,Cerrado,No se pueden realizar llamadas,Soporte Videoconferencia,20190327,20190426
397,1106032,9993677,20190327,Cerrado,VC en curso,Soporte Videoconferencia,20190327,20190327
398,1106032,9993744,20190327,Cerrado,VC en curso,Soporte Videoconferencia,20190327,20190402
399,1118094,9994005,20190327,Cerrado,VC en curso,Soporte Videoconferencia,20190327,20190327
402,1103121,9994879,20190327,Cerrado,VC en curso,Soporte Videoconferencia,20190327,20190412
407,1101127,9995760,20190327,Cerrado,No se pueden realizar llamadas,Soporte Videoconferencia,20190327,20190404
408,1103263,9995956,20190327,Cerrado,VC en curso,Soporte Videoconferencia,20190327,20190327
413,1103159,10002532,20190328,Cerrado,VC en curso,Soporte Videoconferencia,20190328,20190429
417,1101261,10002706,20190328,Cerrado,No se pueden realizar llamadas,Soporte Videoconferencia,20190328,20190328
418,1202232,10002780,20190328,Cerrado,No se pueden realizar llamadas,Soporte Videoconferencia,20190328,20190409
420,1113154,10003383,20190328,Cerrado,No se pueden realizar llamadas,Soporte Videoconferencia,20190328,20190328
421,1113120,10003619,20190328,Cerrado,No se pueden realizar llamadas,Soporte Videoconferencia,20190328,20190402
422,1102092,10003713,20190328,Cerrado,VC en curso,Soporte Videoconferencia,20190328,20190408
423,1101327,10003826,20190328,Cerrado,No se pueden realizar llamadas,Soporte Videoconferencia,20190328,20190328
424,1109010,10003834,20190328,Cerrado,No se pueden realizar llamadas,Soporte Videoconferencia,20190328,20190405
434,1405675,10004751,20190328,Cerrado,VC en curso,Soporte Videoconferencia,20190328,20190328
435,1405675,10004787,20190328,Cerrado,VC en curso,Soporte Videoconferencia,20190328,20190328
437,1101140,10005023,20190328,Cerrado,VC en curso,Soporte Videoconferencia,20190328,20190329
439,1103292,10012734,20190329,Cerrado,VC en curso,Soporte Videoconferencia,20190329,20190329
440,1102070,10012763,20190329,Cerrado,VC en curso,Soporte Videoconferencia,20190329,20190329
441,1102037,10012782,20190329,Cerrado,VC en curso,Soporte Videoconferencia,20190329,20190329
442,1102070,10012790,20190329,Cerrado,VC en curso,Soporte Videoconferencia,20190329,20190329
443,4007546,10012936,20190329,Cerrado,VC en curso,Soporte Videoconferencia,20190329,20190329
444,-1,10013060,20190329,Cerrado,VC en curso,Soporte Videoconferencia,20190329,20190329
445,1409206,10013152,20190329,Cerrado,VC en curso,Soporte Videoconferencia,20190329,20190401
446,1315595,10013164,20190329,Cerrado,VC en curso,Soporte Videoconferencia,20190329,20190329
447,1102070,10013220,20190329,Cerrado,No se pueden realizar llamadas,Soporte Videoconferencia,20190329,20190429
450,1102064,10013734,20190329,Cerrado,VC en curso,Soporte Videoconferencia,20190329,20190401
451,13067290,10013759,20190329,Cerrado,VC en curso,Soporte Videoconferencia,20190329,20190329
452,1111032,10013901,20190329,Cerrado,No se pueden realizar llamadas,Soporte Videoconferencia,20190329,20190329
453,1310222,10014071,20190329,Cerrado,VC en curso,Soporte Videoconferencia,20190329,20190329
456,1103292,10014655,20190329,Cerrado,VC en curso,Soporte Videoconferencia,20190329,20190329
461,1116077,10015033,20190329,Cerrado,No se pueden realizar llamadas,Soporte Videoconferencia,20190329,20190402
463,1403212,10015395,20190329,Cerrado,VC en curso,Soporte Videoconferencia,20190329,20190329
464,1418220,10015424,20190329,Cerrado,No se pueden realizar llamadas,Soporte Videoconferencia,20190329,20190329
466,1101344,10015453,20190329,Cerrado,VC en curso,Soporte Videoconferencia,20190329,20190329
