,Disponibilidad,codicen,dias_sin_disponibilidad
1,54.55,1402196,10
2,90.91,1115011,2
3,72.73,1116076,6
4,50.0,1113005,11
5,63.64,1406012,8
6,45.45,1204403,12
7,68.18,1103124,7
8,54.55,1201003,10
9,81.82,1111013,4
10,59.09,1101089,9
11,50.0,1115081,11
12,50.0,1119009,11
13,72.73,1103178,6
14,59.09,4006756,9
15,50.0,12101031,11
16,72.73,1215001,6
17,72.73,1202011,6
18,95.45,1107001,1
19,22.73,12101066,17
20,90.91,1416209,2
21,22.73,1110013,17
22,95.45,1117009,1
23,95.45,1411015,1
24,95.45,1117069,1
25,95.45,1116026,1
26,95.45,1103095,1
27,81.82,1109002,4
28,95.45,1104012,1
29,90.91,1101127,2
30,86.36,1102023,3
31,95.45,1103181,1
32,90.91,1110096,2
33,90.91,1112023,2
34,81.82,1101197,4
35,95.45,1109104,1
36,90.91,1103165,2
37,31.82,1319611,15
38,90.91,1103217,2
39,90.91,1119083,2
40,59.09,1310702,9
41,95.45,1115127,1
42,77.27,1104036,5
43,31.82,1104004,15
44,77.27,1102086,5
45,95.45,1102008,1
46,90.91,1102017,2
47,36.36,1103183,14
48,72.73,1108033,6
49,68.18,1105045,7
50,95.45,1118141,1
51,68.18,1101350,7
52,95.45,1116066,1
53,95.45,1106007,1
54,95.45,1108081,1
55,95.45,1106039,1
56,86.36,1103241,3
57,95.45,1103148,1
58,72.73,1101020,6
59,45.45,1106083,12
60,90.91,1107022,2
61,77.27,1103166,5
62,90.91,1415013,2
63,86.36,1401496,3
64,95.45,1105032,1
65,54.55,1111042,10
66,86.36,1114097,3
67,95.45,1302141,1
68,86.36,1101354,3
69,90.91,1114088,2
70,95.45,1114052,1
71,90.91,1102078,2
72,95.45,1103154,1
73,95.45,1101277,1
74,90.91,1405216,2
75,90.91,4006639,2
76,95.45,1117011,1
77,68.18,14106827,7
78,54.55,1110036,10
79,81.82,1403210,4
80,81.82,1114032,4
81,90.91,1113003,2
82,95.45,1111002,1
83,95.45,1111026,1
84,95.45,1103155,1
85,95.45,1119055,1
86,95.45,1119025,1
87,95.45,1101060,1
88,95.45,1112052,1
89,95.45,1103167,1
90,95.45,1104007,1
91,90.91,1105138,2
92,95.45,1206001,1
93,95.45,1211001,1
94,95.45,12161608,1
95,86.36,1116000,3
96,63.64,1101006,8
97,81.82,1102003,4
98,95.45,1418220,1
99,95.45,13013821,1
100,95.45,1113076,1
101,95.45,12101052,1
102,90.91,1101034,2
103,95.45,12131313,1
104,95.45,1401671,1
105,95.45,1402017,1
106,95.45,1102019,1
107,86.36,1113007,3
108,95.45,1109010,1
109,95.45,1109016,1
110,95.45,1113002,1
111,95.45,1404214,1
112,95.45,14197639,1
113,95.45,1415200,1
114,95.45,1202212,1
115,90.91,1103173,2
116,95.45,12121211,1
117,95.45,1204408,1
118,63.64,1302821,8
119,95.45,1113096,1
120,95.45,1101330,1
121,95.45,1113024,1
122,95.45,1103126,1
123,95.45,1202206,1
124,95.45,1113004,1
125,95.45,4006633,1
126,68.18,12131302,7
127,95.45,1412194,1
128,72.73,2000190,6
129,95.45,1310172,1
130,72.73,12181807,6
131,90.91,1101230,2
132,81.82,1104003,4
133,72.73,3500548,6
134,90.91,1109096,2
135,77.27,1110007,5
136,86.36,1103262,3
137,95.45,1401672,1
138,86.36,13017551,3
139,81.82,1106064,4
140,95.45,1108034,1
141,95.45,1113079,1
142,95.45,1111027,1
143,95.45,12101018,1
144,95.45,1114043,1
145,86.36,12101057,3
146,90.91,14016079,2
147,95.45,1104018,1
148,95.45,1417016,1
149,95.45,1205503,1
150,95.45,1103292,1
151,81.82,12131309,4
152,95.45,1105009,1
153,95.45,1101298,1
154,95.45,12181811,1
155,95.45,1403211,1
156,95.45,1103116,1
157,90.91,1409217,2
158,90.91,1414219,2
159,95.45,1103145,1
160,95.45,1101179,1
161,95.45,2000191,1
162,86.36,1103257,3
163,86.36,1113092,3
164,95.45,13015852,1
165,95.45,1112027,1
166,86.36,1103299,3
167,86.36,1116121,3
168,95.45,1102054,1
169,95.45,1101021,1
170,95.45,1109007,1
171,95.45,13014813,1
172,95.45,3500030,1
173,90.91,1101047,2
174,95.45,1202211,1
175,95.45,1113000,1
176,90.91,3500551,2
177,95.45,12141411,1
178,95.45,1105001,1
179,95.45,1103110,1
180,95.45,1116108,1
181,95.45,1102001,1
182,95.45,12171707,1
183,95.45,14016168,1
184,95.45,1109105,1
185,95.45,1108045,1
186,95.45,1106075,1
187,95.45,12101001,1
188,95.45,1106072,1
189,95.45,1118070,1
190,95.45,1101140,1
191,95.45,1114028,1
192,95.45,1110044,1
193,95.45,1202221,1
194,95.45,3500549,1
195,95.45,1103186,1
196,50.0,1101148,11
197,95.45,1101019,1
