,Disponibilidad,codicen,dias_sin_disponibilidad
1,18.75,1115092,13
2,68.75,1109004,5
3,87.5,1101068,2
4,93.75,1105092,1
5,43.75,1119028,9
6,93.75,1203305,1
7,75.0,1202209,4
8,81.25,1110005,3
9,81.25,1116055,3
10,87.5,1103112,2
11,93.75,1116052,1
12,93.75,1105098,1
13,93.75,1119066,1
14,62.5,1103219,6
15,81.25,1119017,3
16,93.75,1106081,1
17,93.75,1101382,1
18,93.75,1103291,1
19,87.5,1112003,2
20,93.75,1107027,1
21,93.75,1401257,1
22,87.5,1205512,2
23,93.75,1110000,1
24,68.75,1117041,5
25,75.0,1106085,4
26,93.75,1103191,1
27,75.0,1101356,4
28,93.75,1113024,1
29,62.5,1103159,6
30,81.25,1118006,3
31,93.75,1118129,1
32,75.0,12101001,4
33,81.25,1310702,3
34,56.25,1112005,7
35,93.75,1202230,1
36,68.75,1103173,5
37,75.0,1109002,4
38,93.75,1000491,1
39,93.75,1113105,1
40,93.75,13011301,1
41,31.25,1308581,11
42,87.5,1202212,2
43,87.5,1101028,2
44,68.75,1112034,5
45,93.75,12111104,1
46,93.75,14106827,1
47,25.0,12111109,12
48,87.5,14197639,2
49,93.75,12151502,1
50,62.5,1310382,6
51,87.5,1101236,2
52,62.5,1113091,6
53,87.5,1101366,2
54,93.75,1101036,1
55,87.5,1112070,2
56,93.75,1101177,1
57,93.75,1114044,1
58,68.75,1203063,5
59,93.75,1105093,1
60,93.75,1106075,1
61,81.25,1103101,3
62,93.75,1101188,1
63,87.5,131818902,2
64,81.25,13101092,3
65,37.5,1119048,10
66,93.75,1105105,1
67,93.75,1309242,1
68,81.25,1301091,3
69,93.75,1103300,1
70,87.5,1104008,2
71,93.75,1105032,1
72,93.75,1116063,1
73,93.75,1101041,1
74,87.5,1109096,2
75,43.75,1104107,9
76,93.75,1218001,1
77,93.75,1216001,1
78,81.25,4006639,3
79,93.75,1101149,1
80,56.25,1105038,7
81,93.75,1101332,1
82,81.25,4006756,3
83,87.5,1104013,2
84,93.75,1302461,1
85,87.5,1310172,2
86,93.75,13016871,1
87,50.0,12161614,8
88,87.5,1109010,2
89,93.75,1114028,1
90,93.75,1302141,1
91,93.75,1103136,1
92,93.75,1103126,1
93,93.75,1104036,1
94,81.25,1402196,3
95,93.75,1102009,1
96,56.25,1207713,7
97,93.75,1103175,1
98,87.5,1304111,2
99,93.75,1114110,1
100,93.75,1103201,1
101,93.75,1404214,1
102,93.75,1214001,1
103,93.75,1414219,1
104,93.75,1406012,1
105,93.75,1401496,1
106,93.75,1107000,1
107,93.75,1110001,1
108,62.5,1111057,6
109,93.75,4006809,1
110,93.75,1103178,1
111,75.0,1310561,4
112,93.75,1102037,1
113,93.75,1107033,1
114,93.75,1107031,1
115,93.75,1405216,1
116,93.75,1115098,1
117,93.75,1310201,1
118,93.75,1410674,1
119,93.75,1101227,1
120,93.75,1118060,1
121,93.75,1201015,1
122,93.75,1116117,1
123,93.75,13011722,1
124,93.75,13018901,1
125,93.75,1114040,1
126,93.75,1111005,1
127,93.75,1102020,1
128,93.75,1202261,1
129,81.25,1111001,3
130,93.75,1114086,1
131,93.75,1119083,1
132,93.75,12101023,1
133,93.75,-1,1
134,93.75,1413204,1
135,93.75,1104000,1
136,93.75,12131303,1
137,93.75,1403211,1
138,93.75,1102092,1
139,93.75,4006757,1
140,93.75,1111093,1
141,93.75,12161602,1
142,93.75,1304131,1
143,93.75,1106002,1
144,93.75,1315595,1
145,93.75,1403212,1
146,93.75,1105039,1
147,93.75,1101035,1
148,93.75,1114074,1
149,93.75,13017651,1
150,93.75,1111004,1
151,62.5,1115008,6
152,93.75,1103124,1
153,93.75,1101050,1
154,75.0,1101054,4
155,93.75,1109011,1
156,93.75,1103183,1
