,Disponibilidad,codicen,dias_sin_disponibilidad
1,36.84,1102043,12
2,78.95,1201102,4
3,26.32,2000189,14
4,0.0,1103269,19
5,84.21,13011301,3
6,10.53,1413204,17
7,26.32,1101105,14
8,78.95,1202239,4
9,73.68,1201106,5
10,68.42,12101014,6
11,26.32,13016851,14
12,78.95,1108008,4
13,0.0,1108019,19
14,26.32,1107031,14
15,57.89,1111089,8
16,89.47,1104132,2
17,63.16,1103292,7
18,94.74,13017551,1
19,31.58,1103197,13
20,94.74,14017305,1
21,68.42,1109010,6
22,78.95,1104119,4
23,84.21,1111057,3
24,84.21,1110050,3
25,15.79,1101068,16
26,94.74,1116000,1
27,78.95,13013821,4
28,89.47,1101236,2
29,36.84,1204402,12
30,26.32,1304111,14
31,94.74,4006975,1
32,63.16,1101366,7
33,94.74,1112017,1
34,89.47,1117110,2
35,47.37,1107001,10
36,94.74,1115048,1
37,78.95,1102037,4
38,94.74,13016544,1
39,31.58,1111054,13
40,63.16,1114088,7
41,89.47,1101378,2
42,73.68,1116045,5
43,57.89,1207713,8
44,94.74,12181812,1
45,94.74,14106827,1
46,89.47,1417483,2
47,89.47,1101226,2
48,68.42,1115098,6
49,89.47,1110052,2
50,78.95,13126314,4
51,63.16,12151503,7
52,94.74,1112062,1
53,68.42,1116099,6
54,47.37,1103173,10
55,94.74,1106064,1
56,47.37,1119031,10
57,63.16,1411015,7
58,47.37,1101154,10
59,47.37,1310722,10
60,89.47,1103111,2
61,94.74,1103130,1
62,94.74,1115009,1
63,57.89,1101369,8
64,94.74,1110093,1
65,94.74,1103271,1
66,68.42,1101055,6
67,89.47,1102005,2
68,63.16,1113109,7
69,89.47,-1,2
70,68.42,3500554,6
71,94.74,1405000,1
72,94.74,1114032,1
73,94.74,1111027,1
74,94.74,1309551,1
75,78.95,1115117,4
76,94.74,1112032,1
77,94.74,1103124,1
78,94.74,3500553,1
79,94.74,1101040,1
80,89.47,1102017,2
81,94.74,1103116,1
82,68.42,1209909,6
83,89.47,1101176,2
84,94.74,1101049,1
85,94.74,1115092,1
86,89.47,1401671,2
87,94.74,13014811,1
88,94.74,1202261,1
89,63.16,12131302,7
90,94.74,1202227,1
91,94.74,1115088,1
92,94.74,1119047,1
93,94.74,1113003,1
94,94.74,1109054,1
95,68.42,1303841,6
96,94.74,1102083,1
97,94.74,14156107,1
98,68.42,1115002,6
99,94.74,1109008,1
100,94.74,1103034,1
101,78.95,1403211,4
102,73.68,1215001,5
103,94.74,1117001,1
104,78.95,1103059,4
105,94.74,1111048,1
106,94.74,4006737,1
107,94.74,1101036,1
108,94.74,1111017,1
109,94.74,4006757,1
110,94.74,1109108,1
111,89.47,1118162,2
112,94.74,1101063,1
113,94.74,1115095,1
114,94.74,1114086,1
115,94.74,1101270,1
116,94.74,1116068,1
117,94.74,1103217,1
118,94.74,4006736,1
119,94.74,1101179,1
120,89.47,1109111,2
121,84.21,1102001,3
122,84.21,1106032,3
123,94.74,1118094,1
124,84.21,1103121,3
125,84.21,1101127,3
126,94.74,1103263,1
127,89.47,1103159,2
128,94.74,1101261,1
129,89.47,1202232,2
130,94.74,1113154,1
131,89.47,1113120,2
132,89.47,1102092,2
133,94.74,1101327,1
134,94.74,1405675,1
135,89.47,1101140,2
136,94.74,1102070,1
137,94.74,4007546,1
138,94.74,1409206,1
139,94.74,1315595,1
140,94.74,1102064,1
141,94.74,13067290,1
142,94.74,1111032,1
143,94.74,1310222,1
144,94.74,1116077,1
145,94.74,1403212,1
146,94.74,1418220,1
147,68.42,1101101,6
148,47.37,1111026,10
149,89.47,1101152,2
150,52.63,1101149,9
151,89.47,1101227,2
152,63.16,1101066,7
153,94.74,1116046,1
154,94.74,1101038,1
